<?xml version="1.0" encoding="UTF-8" standalone="no"?>
<!-- Created with Inkscape (http://www.inkscape.org/) -->

<svg
   version="1.1"
   id="svg2"
   width="75.591011"
   height="43.01738"
   viewBox="0 0 75.591011 43.01738"
   sodipodi:docname="sun.svg"
   inkscape:version="1.1.2 (0a00cf5339, 2022-02-04)"
   xmlns:inkscape="http://www.inkscape.org/namespaces/inkscape"
   xmlns:sodipodi="http://sodipodi.sourceforge.net/DTD/sodipodi-0.dtd"
   xmlns="http://www.w3.org/2000/svg"
   xmlns:svg="http://www.w3.org/2000/svg">
  <defs
     id="defs6" />
  <sodipodi:namedview
     id="namedview4"
     pagecolor="#ffffff"
     bordercolor="#666666"
     borderopacity="1.0"
     inkscape:pageshadow="2"
     inkscape:pageopacity="0.0"
     inkscape:pagecheckerboard="0"
     showgrid="false"
     inkscape:zoom="1.9131429"
     inkscape:cx="37.634409"
     inkscape:cy="21.692055"
     inkscape:window-width="2698"
     inkscape:window-height="1088"
     inkscape:window-x="0"
     inkscape:window-y="0"
     inkscape:window-maximized="1"
     inkscape:current-layer="g8" />
  <g
     inkscape:groupmode="layer"
     inkscape:label="Image"
     id="g8"
     transform="translate(-3462.2045,-3478.4913)">
    <path
       style="fill:#000000;stroke-width:0.0111646"
       d="m 3507.3788,3521.4956 c -9.6254,-0.018 -18.9379,-0.033 -20.7476,-0.034 h -1.8795 l -0.028,-0.024 c -0.04,-0.034 -0.042,-0.083 -0.015,-0.4029 0.2286,-2.726 1.0489,-5.2678 2.4333,-7.5402 0.5281,-0.8668 1.1167,-1.6542 1.8338,-2.4535 0.195,-0.2173 0.8386,-0.8619 1.0591,-1.0606 1.6112,-1.4521 3.3882,-2.4985 5.3646,-3.1586 1.2101,-0.4042 2.4133,-0.635 3.7624,-0.7219 0.296,-0.019 1.3119,-0.019 1.6078,0 1.6566,0.1067 3.1223,0.435 4.6147,1.0338 4.3082,1.7284 7.692,5.4599 9.1734,10.1162 0.3029,0.9519 0.5394,1.9996 0.6641,2.9411 0.014,0.1025 0.03,0.1794 0.038,0.1898 0.011,0.013 0.016,0.054 0.017,0.157 5e-4,0.077 0.01,0.1923 0.012,0.2568 0.01,0.065 0.017,0.17 0.023,0.2345 0.01,0.065 0.013,0.1883 0.014,0.2751 0,0.1413 -3e-4,0.1604 -0.019,0.1815 l -0.022,0.023 h -1.6478 c -0.9064,0 -3.7228,-0.01 -6.2589,-0.01 z m -24.2104,-0.1969 c -0.09,-0.01 -12.7811,-0.8866 -17.16,-1.1912 -2.0663,-0.1437 -3.7655,-0.2648 -3.7759,-0.2689 -0.022,-0.01 -0.034,-0.04 -0.025,-0.066 0,-0.01 0.028,-0.024 0.054,-0.031 0.034,-0.01 2.683,-0.011 10.5458,-0.01 5.7747,0.01 10.5044,0.01 10.5103,0.014 0.012,0.01 0,0.3032 -0.015,0.5336 -0.01,0.074 -0.014,0.3274 -0.018,0.5638 -0.01,0.3729 -0.01,0.4317 -0.025,0.4438 -0.01,0.01 -0.021,0.013 -0.024,0.012 0,0 -0.034,0 -0.068,-0.01 z m -19.3955,-1.4625 c -0.017,0 -0.047,0 -0.067,-1e-4 -0.02,0 -0.01,0.01 0.03,0.01 0.037,10e-5 0.054,0 0.037,-0.01 z m 53.2721,1.4068 c -0.013,-0.011 -0.03,-0.041 -0.04,-0.066 -0.019,-0.05 -0.056,-0.325 -0.074,-0.5572 -0.017,-0.2024 -0.028,-0.7712 -0.015,-0.7786 0.011,-0.01 1.1161,-0.012 10.3095,-0.042 5.2245,-0.018 9.6727,-0.037 10.4332,-0.046 0.099,0 0.1499,0.03 0.1339,0.08 -0.01,0.03 -0.021,0.031 -0.279,0.038 -0.1228,0 -2.6047,0.1667 -5.5153,0.3636 -2.9106,0.1969 -6.4827,0.4384 -7.938,0.5367 -1.4554,0.098 -2.9777,0.2011 -3.3829,0.2285 -0.4052,0.027 -1.3372,0.09 -2.0711,0.1393 -1.3156,0.088 -1.4844,0.1011 -1.5192,0.1164 -0.01,0.01 -0.027,-4e-4 -0.041,-0.012 z m 18.5551,-1.3623 c -0.02,0 -0.053,0 -0.073,0 -0.02,0 0,0.01 0.036,0.01 0.04,0 0.056,0 0.036,-0.01 z m -52.5124,-0.9064 c -0.015,-0.022 0.043,-0.01 -5.0885,-1.3686 -0.9856,-0.2616 -1.9502,-0.5178 -2.1436,-0.5693 -0.1934,-0.051 -1.2912,-0.343 -2.4395,-0.6479 -1.1681,-0.3102 -2.0964,-0.5621 -2.1073,-0.5719 -0.041,-0.037 -0.01,-0.1034 0.051,-0.1034 0.02,0 2.7436,0.3869 6.0533,0.8597 3.3096,0.4728 6.0441,0.8597 6.0765,0.8597 0.087,0 0.089,0.01 0.053,0.235 -0.087,0.5444 -0.2808,1.2109 -0.3798,1.31 -0.024,0.024 -0.057,0.022 -0.074,0 z m -10.9109,-3.0378 c 0,-0.01 -0.023,-0.01 -0.042,-0.01 -0.034,0 -0.034,0 -0.01,0.01 0.04,0.013 0.058,0.013 0.05,0 z m 44.6079,2.9782 c -0.067,-0.1091 -0.1368,-0.4221 -0.2567,-1.15 -0.033,-0.1996 -0.033,-0.2446 0,-0.2568 0.01,0 0.026,0 0.04,0.01 0.015,0.01 0.1005,0 0.2233,-0.019 0.1091,-0.015 1.3715,-0.1936 2.8053,-0.3963 1.4338,-0.2026 3.0692,-0.4337 3.6341,-0.5135 1.647,-0.2326 2.9593,-0.4182 3.5894,-0.5074 0.3224,-0.046 0.7846,-0.111 1.0272,-0.1452 0.2425,-0.034 0.5278,-0.074 0.6339,-0.09 0.2672,-0.038 0.3039,-0.035 0.3039,0.018 0,0.05 -0.055,0.071 -0.4036,0.1587 -0.1864,0.047 -1.1854,0.3008 -2.2201,0.5645 -1.9536,0.4977 -2.4295,0.6189 -4.4547,1.1345 -0.6662,0.1696 -1.4763,0.3759 -1.8003,0.4584 -0.3239,0.082 -0.8564,0.2181 -1.1834,0.3013 -1.0987,0.2797 -1.2521,0.3187 -1.5559,0.3965 -0.1664,0.042 -0.316,0.078 -0.3323,0.078 -0.022,0 -0.036,-0.01 -0.052,-0.036 z m 11.0477,-2.8665 c 0.014,-0.01 0.016,-0.01 0.01,-0.01 -0.01,0 -0.027,0.01 -0.039,0.01 -0.014,0.01 -0.016,0.01 -0.01,0.01 0.01,0 0.027,-0.01 0.039,-0.01 z m -11.603,0.6167 c -0.1239,-0.1239 -0.3104,-0.6539 -0.4222,-1.2002 -0.027,-0.134 -0.03,-0.1557 -0.015,-0.1692 0.013,-0.013 1.3283,-0.4081 3.2149,-0.9671 0.1196,-0.035 0.8255,-0.2454 1.5685,-0.4666 0.743,-0.2212 2.1975,-0.654 3.2322,-0.9617 1.0346,-0.3078 2.0395,-0.6068 2.2329,-0.6645 0.1934,-0.058 0.9445,-0.2813 1.6691,-0.497 0.7246,-0.2156 1.6128,-0.48 1.9736,-0.5874 0.4112,-0.1224 0.6697,-0.1942 0.6923,-0.1919 0.031,0 0.037,0.01 0.039,0.037 0.01,0.07 -0.012,0.079 -0.5558,0.2945 -0.2793,0.1105 -1.1611,0.4604 -1.9593,0.7775 -0.7983,0.3171 -1.6674,0.6623 -1.9315,0.767 -0.264,0.1048 -0.6659,0.2644 -0.8931,0.3547 -0.4548,0.1809 -1.792,0.712 -3.0983,1.2306 -1.1975,0.4754 -2.1137,0.8392 -4.0113,1.5929 -0.9137,0.3629 -1.6732,0.6627 -1.6877,0.6664 -0.018,0.01 -0.034,-3e-4 -0.048,-0.015 z m 13.1466,-5.2974 c 0.032,-0.013 0.058,-0.024 0.055,-0.026 -0.01,-0.01 -0.1534,0.043 -0.1534,0.054 0,0.01 0.01,0.01 0.019,0 0.01,-0.01 0.046,-0.018 0.078,-0.03 z m -45.6411,5.2728 c -0.01,-0.014 -0.3302,-0.1456 -0.9413,-0.3856 -0.5092,-0.2001 -1.4811,-0.5819 -2.1595,-0.8485 -0.6786,-0.2666 -1.6131,-0.6336 -2.0767,-0.8158 -0.4636,-0.1821 -2.6389,-1.0367 -4.834,-1.8991 -2.1951,-0.8624 -4.0129,-1.5775 -4.0396,-1.5893 -0.045,-0.02 -0.048,-0.025 -0.045,-0.058 v -0.037 h 0.078 c 0.081,0 0.1317,0.012 3.523,1.024 0.2856,0.085 1.0869,0.3239 1.7808,0.5304 0.6939,0.2065 1.3771,0.4099 1.5183,0.4521 0.2601,0.078 0.9207,0.2743 4.1422,1.2335 0.9824,0.2926 1.9019,0.5664 2.0431,0.6085 0.1412,0.042 0.5362,0.1598 0.8777,0.2616 0.3415,0.1018 0.6357,0.185 0.6537,0.185 0.038,0 0.059,0.018 0.059,0.05 0,0.037 -0.4715,1.2286 -0.5091,1.2872 -0.02,0.031 -0.054,0.033 -0.074,0 z m -12.9145,-5.2125 c 0,-0.01 -0.019,-0.015 -0.043,-0.022 -0.064,-0.019 -0.07,-0.014 -0.013,0.01 0.061,0.026 0.056,0.024 0.056,0.013 z m 13.7828,3.0982 c -0.01,-0.016 -0.1338,-0.093 -0.2993,-0.1868 -0.2861,-0.1619 -0.6117,-0.3464 -1.303,-0.7384 -0.2118,-0.12 -0.7243,-0.4105 -1.1388,-0.6455 -0.4145,-0.2349 -1.0374,-0.588 -1.3844,-0.7848 -0.3469,-0.1968 -0.686,-0.3889 -0.7536,-0.427 -0.1488,-0.084 -0.4052,-0.2292 -2.0375,-1.1547 -0.697,-0.3951 -1.4154,-0.8024 -1.5966,-0.905 -0.1811,-0.1026 -0.475,-0.2692 -0.6531,-0.3701 -0.1781,-0.1011 -0.4795,-0.2719 -0.6698,-0.3797 -1.0551,-0.5977 -2.0918,-1.1856 -2.119,-1.2016 -0.035,-0.021 -0.05,-0.062 -0.031,-0.084 0.01,-0.01 0.039,-0.018 0.071,-0.022 0.058,-0.01 0.066,-0.01 0.477,0.1783 0.4857,0.2153 2.7808,1.2336 4.6555,2.0653 0.7153,0.3175 1.9462,0.8635 2.7353,1.2135 0.789,0.3501 1.7913,0.7947 2.2273,0.9881 0.436,0.1934 1.1483,0.5094 1.5831,0.7022 0.4347,0.1927 0.8023,0.3504 0.817,0.3504 0.069,0 0.083,0.1 0.033,0.2242 -0.037,0.091 -0.5029,1.1337 -0.5234,1.1713 -0.022,0.039 -0.066,0.042 -0.089,0.01 z m -11.1432,-6.4713 c -0.01,-0.01 -0.03,-0.018 -0.055,-0.029 -0.052,-0.022 -0.046,-0.011 0.014,0.023 0.041,0.023 0.062,0.026 0.041,0.01 z m 41.9316,6.3836 c -0.01,-0.01 -0.014,-0.022 -0.014,-0.034 0,-0.011 -0.029,-0.071 -0.063,-0.1345 -0.1126,-0.2032 -0.3805,-0.7789 -0.4612,-0.991 -0.01,-0.022 -0.022,-0.047 -0.03,-0.057 -0.023,-0.028 -0.018,-0.074 0.01,-0.093 0.014,-0.01 0.1558,-0.069 0.3154,-0.1332 0.1597,-0.065 0.8228,-0.3331 1.4738,-0.5972 1.074,-0.4356 1.7361,-0.7043 4.3263,-1.7551 0.4574,-0.1856 1.0595,-0.4299 1.3379,-0.5428 0.2783,-0.1128 0.5151,-0.2052 0.5261,-0.2052 0.031,0 0.043,0.023 0.043,0.081 0,0.061 -0.01,0.07 -0.096,0.123 -0.035,0.021 -0.2651,0.1579 -0.5108,0.3039 -0.2456,0.146 -0.6802,0.4048 -0.9657,0.5748 -0.2856,0.1701 -0.7176,0.4274 -0.9602,0.5718 -0.2425,0.1443 -0.7851,0.4673 -1.2057,0.7177 -0.4207,0.2505 -0.9507,0.566 -1.1779,0.7013 -0.2272,0.1352 -0.5286,0.3147 -0.6699,0.399 -0.5983,0.3565 -1.7233,1.0256 -1.7705,1.0529 -0.056,0.032 -0.088,0.037 -0.1085,0.016 z m 7.0594,-4.2786 c 0.021,-0.016 0.019,-0.016 -0.016,0 -0.022,0.01 -0.041,0.022 -0.043,0.029 -0.01,0.015 0.021,0 0.059,-0.027 z m -37.5429,1.738 c -0.3971,-0.2993 -1.2956,-0.9763 -1.9966,-1.5044 -0.7011,-0.5281 -1.6472,-1.2409 -2.1026,-1.584 -0.4554,-0.3432 -1.152,-0.8678 -1.5481,-1.1661 -0.3961,-0.2981 -0.8809,-0.6633 -1.0774,-0.8115 -0.5035,-0.3797 -1.753,-1.3212 -2.4003,-1.8085 -0.301,-0.2266 -0.8712,-0.6562 -1.2672,-0.9547 -0.3961,-0.2984 -0.9839,-0.7412 -1.3063,-0.984 -0.3224,-0.2428 -0.8172,-0.6156 -1.0997,-0.8285 -0.2825,-0.2128 -0.702,-0.5288 -0.9322,-0.7022 -1.6724,-1.2588 -2.2866,-1.7223 -2.3083,-1.7422 -0.028,-0.026 -0.033,-0.066 -0.011,-0.083 0.01,-0.01 0.037,-0.014 0.066,-0.018 0.061,-0.01 0,-0.043 0.7912,0.4757 0.6997,0.4599 1.532,1.0065 2.4005,1.5764 0.396,0.2599 0.8959,0.5882 1.1109,0.7295 0.2148,0.1412 0.6871,0.4514 1.0494,0.6892 0.665,0.4365 1.3892,0.912 2.0654,1.3561 0.2026,0.133 0.6197,0.4069 0.9267,0.6084 0.3071,0.2015 0.8044,0.5281 1.1053,0.7256 0.3009,0.1976 0.9665,0.6347 1.4793,0.9713 0.5128,0.3368 1.1081,0.7277 1.323,0.869 0.2149,0.1413 0.4536,0.2979 0.5303,0.3481 0.077,0.05 0.4862,0.319 0.9099,0.5973 0.4238,0.2783 0.9211,0.6049 1.1054,0.7256 0.1841,0.1208 0.7092,0.4655 1.1667,0.7661 0.4574,0.3006 1.0271,0.6745 1.266,0.8309 0.425,0.2782 0.498,0.3348 0.498,0.3866 0,0.01 -0.037,0.054 -0.081,0.102 -0.1066,0.1142 -0.2224,0.2529 -0.3652,0.4376 -0.2174,0.2811 -0.3828,0.4648 -0.4637,0.515 -0.079,0.049 -0.049,0.068 -0.8338,-0.5235 z m -14.9602,-11.4287 c -0.028,-0.022 -0.1782,-0.1164 -0.1658,-0.1036 0.037,0.038 0.162,0.127 0.1658,0.1172 0,-0.01 0,-0.012 0,-0.014 z m 44.3886,11.9084 c -0.01,-0.011 -0.018,-0.034 -0.017,-0.049 0,-0.02 -0.034,-0.074 -0.1375,-0.2056 -0.077,-0.098 -0.2417,-0.3137 -0.3663,-0.4794 -0.1244,-0.1658 -0.2356,-0.309 -0.247,-0.3182 -0.05,-0.041 -0.046,-0.1228 0.01,-0.1228 0.027,0 0.551,-0.3358 7.8993,-5.0613 1.1268,-0.7245 2.3275,-1.4966 2.6683,-1.7156 0.3408,-0.2189 1.7099,-1.0991 3.0424,-1.9558 1.3324,-0.8567 2.4342,-1.5637 2.4483,-1.5711 0.064,-0.034 0.1021,0.03 0.055,0.091 -0.015,0.02 -0.4492,0.3503 -0.9642,0.7338 -0.5149,0.3834 -1.1021,0.8206 -1.3047,0.9715 -0.2026,0.1509 -0.4664,0.3473 -0.5862,0.4363 -0.4415,0.3285 -0.7352,0.5472 -2.4952,1.8575 -0.9886,0.736 -1.893,1.4093 -2.0097,1.4961 -0.1166,0.087 -0.3301,0.2458 -0.4745,0.3532 -0.1443,0.1076 -0.7271,0.5414 -1.2951,0.9642 -0.568,0.4228 -1.2236,0.911 -1.4569,1.0849 -0.2334,0.1739 -0.5348,0.3984 -0.6699,0.499 -0.2219,0.1652 -3.3197,2.4712 -3.8269,2.8488 -0.1153,0.086 -0.2185,0.1575 -0.2295,0.1593 -0.011,0 -0.029,-0.01 -0.039,-0.018 z m 14.0769,-10.5542 c 0.064,-0.049 0.083,-0.071 0.03,-0.037 -0.017,0.011 -0.047,0.03 -0.066,0.043 -0.032,0.021 -0.047,0.04 -0.03,0.04 0,0 0.034,-0.021 0.067,-0.046 z m -15.5623,8.7738 c -0.2942,-0.2839 -0.9004,-0.9585 -0.9004,-1.0019 0,-0.021 0.022,-0.051 0.041,-0.058 0.01,0 0.1226,-0.1 0.2568,-0.2168 0.1342,-0.1169 0.6308,-0.5488 1.1036,-0.9597 0.9616,-0.8356 2.2678,-1.9709 3.1596,-2.7462 0.3254,-0.283 1.7448,-1.5165 3.154,-2.7412 1.4093,-1.2247 2.8354,-2.4642 3.1692,-2.7545 0.6368,-0.5536 0.6409,-0.5566 0.6874,-0.5101 0.01,0.01 0.018,0.029 0.018,0.042 0,0.024 -0.071,0.1002 -1.0606,1.1296 -0.2065,0.2148 -0.9274,0.966 -1.6019,1.6691 -0.6746,0.703 -1.2848,1.3386 -1.3562,1.4123 -0.071,0.074 -0.6117,0.6364 -1.2009,1.2504 -1.1815,1.2312 -1.4752,1.5371 -1.8812,1.9594 -0.1507,0.1565 -0.9391,0.978 -1.7521,1.8254 -0.813,0.8474 -1.5301,1.5947 -1.5935,1.6607 -0.068,0.071 -0.124,0.12 -0.1367,0.12 -0.012,0 -0.059,-0.037 -0.1054,-0.081 z m 9.8846,-10.2407 c 0.014,-0.015 0.024,-0.028 0.021,-0.028 0,0 -0.018,0.013 -0.032,0.028 -0.014,0.015 -0.024,0.028 -0.021,0.028 0,0 0.018,-0.013 0.032,-0.028 z m -36.3479,9.6211 c -0.3677,-0.373 -1.1053,-1.1228 -1.6391,-1.6663 -0.5339,-0.5434 -1.1294,-1.1488 -1.3235,-1.3453 -0.1941,-0.1965 -0.7897,-0.8019 -1.3236,-1.3454 -0.534,-0.5434 -1.2622,-1.2844 -1.6185,-1.6467 -0.3562,-0.3623 -1.0971,-1.116 -1.6465,-1.6747 -0.5492,-0.5588 -1.2902,-1.3124 -1.6465,-1.6748 -0.8938,-0.9088 -0.9549,-0.9719 -0.9549,-0.9872 0,-0.038 0.024,-0.057 0.07,-0.056 0.046,3e-4 0.068,0.018 0.8453,0.6709 0.4391,0.3689 1.258,1.0566 1.8198,1.5283 0.5619,0.4717 1.9536,1.64 3.0926,2.5963 2.3301,1.9562 2.193,1.8411 2.713,2.278 0.2119,0.178 0.5585,0.4689 0.7704,0.6465 0.2119,0.1775 0.5083,0.4264 0.6587,0.5529 0.1504,0.1267 0.6378,0.5356 1.083,0.9088 0.4452,0.3732 0.8182,0.6887 0.829,0.7011 0.01,0.013 0.019,0.033 0.019,0.045 0,0.014 -0.06,0.084 -0.1538,0.1801 -0.1712,0.1759 -0.3451,0.3675 -0.6498,0.7161 -0.1128,0.129 -0.2104,0.2382 -0.2171,0.2426 -0.039,0.026 -0.068,0 -0.7282,-0.6696 z m -9.3766,-9.7048 c -0.011,-0.012 -0.026,-0.022 -0.032,-0.022 -0.01,0 4e-4,0.013 0.014,0.028 0.03,0.033 0.046,0.027 0.017,-0.01 z m 34.1108,8.6107 c -0.039,-0.035 -0.1543,-0.137 -0.255,-0.2261 -0.1008,-0.089 -0.2926,-0.2693 -0.4262,-0.4006 -0.204,-0.2005 -0.2429,-0.2439 -0.2429,-0.2707 0,-0.026 0.08,-0.1188 0.4775,-0.5483 0.2626,-0.2841 1.1505,-1.2449 1.973,-2.1353 0.8225,-0.8904 1.7391,-1.8826 2.037,-2.205 0.2977,-0.3224 0.6623,-0.7168 0.81,-0.8764 0.4264,-0.4607 1.5743,-1.7036 2.1138,-2.2888 0.2717,-0.2947 0.5058,-0.5452 0.5201,-0.5566 0.033,-0.026 0.071,-0.016 0.08,0.021 0.01,0.033 0.01,0.037 -0.1984,0.3172 -0.083,0.1136 -0.5799,0.7969 -1.1049,1.5184 -0.5251,0.7215 -1.4464,1.9876 -2.0474,2.8135 -1.9375,2.6627 -3.1678,4.3535 -3.3593,4.6166 -0.1028,0.1412 -0.1978,0.2628 -0.2113,0.2703 -0.053,0.03 -0.09,0.018 -0.1664,-0.05 z m 6.427,-8.7211 c -0.01,-0.01 -0.049,0.046 -0.049,0.06 -1e-4,0.01 0.012,0 0.026,-0.022 0.015,-0.018 0.025,-0.035 0.022,-0.038 z m -28.935,8.7297 c -0.015,-0.012 -0.075,-0.086 -0.1322,-0.1646 -0.3912,-0.5358 -0.7541,-1.0324 -1.0671,-1.4601 -0.2258,-0.3087 -1.7279,-2.364 -1.9745,-2.7018 -0.081,-0.1106 -0.2239,-0.3065 -0.3181,-0.4354 -0.094,-0.129 -0.2374,-0.3249 -0.3181,-0.4355 -0.081,-0.1104 -0.3194,-0.437 -0.5305,-0.7256 -0.211,-0.2887 -0.4496,-0.6152 -0.5303,-0.7257 -0.1407,-0.193 -0.4669,-0.6394 -0.7423,-1.016 -0.2226,-0.3046 -0.9256,-1.2666 -1.0149,-1.389 -0.046,-0.064 -0.1263,-0.1618 -0.1769,-0.2174 -0.084,-0.093 -0.092,-0.105 -0.092,-0.1475 0,-0.027 0.01,-0.052 0.016,-0.06 0.036,-0.03 0.066,-0.01 0.1569,0.1129 0.05,0.066 0.1197,0.1509 0.1565,0.1899 0.037,0.039 0.223,0.2365 0.4137,0.4391 0.7342,0.7798 3.4038,3.6141 4.1802,4.438 0.1881,0.1995 0.5552,0.5892 0.8159,0.8658 0.2605,0.2766 0.8983,0.9535 1.4171,1.5042 0.5189,0.5507 0.9481,1.0136 0.9537,1.0287 0.012,0.032 -0.01,0.062 -0.038,0.062 -0.01,0 -0.031,0.013 -0.046,0.029 -0.015,0.016 -0.1149,0.103 -0.2225,0.1932 -0.4528,0.3805 -0.8001,0.6373 -0.8618,0.6373 -0.01,0 -0.03,-0.01 -0.045,-0.022 z m -6.0812,-8.4996 -0.026,-0.025 0.019,0.031 c 0.011,0.017 0.022,0.028 0.026,0.025 0,0 -0.01,-0.018 -0.019,-0.031 z m 8.0296,7.1792 c -0.01,-0.01 -0.014,-0.024 -0.017,-0.037 -0.01,-0.022 -0.2429,-0.4509 -1.7559,-3.1702 -0.3793,-0.6816 -0.7762,-1.395 -0.8819,-1.5853 -0.1688,-0.3036 -0.7713,-1.3868 -2.4036,-4.3208 -0.2426,-0.4359 -0.5276,-0.9484 -0.6334,-1.1388 -0.1057,-0.1903 -0.5279,-0.9489 -0.938,-1.6858 -0.41,-0.7369 -0.7649,-1.3749 -0.7884,-1.4179 -0.049,-0.089 -0.054,-0.1327 -0.021,-0.151 0.018,-0.01 0.032,-0.01 0.07,0.014 0.05,0.028 0.023,-0.01 0.5663,0.7905 0.1438,0.2118 0.6339,0.9328 1.0891,1.6022 0.4552,0.6692 1.0989,1.6163 1.4307,2.1045 0.6877,1.0121 1.6368,2.4082 2.6033,3.8294 0.3654,0.5374 1.057,1.5547 1.5369,2.2609 0.4799,0.7061 0.9673,1.4233 1.0832,1.5937 0.1453,0.2136 0.2169,0.3098 0.2309,0.3098 0.034,0 0.065,0.041 0.065,0.086 0,0.062 -0.031,0.1133 -0.1056,0.1729 -0.078,0.062 -0.7026,0.5039 -0.9244,0.6532 -0.1519,0.1022 -0.1851,0.1166 -0.2063,0.089 z m -6.8762,-12.6244 c -0.038,-0.058 -0.046,-0.058 -0.013,-10e-5 0.014,0.025 0.03,0.045 0.034,0.045 0.01,0 -0.01,-0.02 -0.021,-0.045 z m 25.7246,12.5221 c -0.1171,-0.038 -0.3699,-0.1831 -0.8475,-0.4888 -0.1541,-0.099 -0.2915,-0.1863 -0.3053,-0.1949 -0.033,-0.021 -0.032,-0.059 0,-0.087 0.026,-0.021 0.4282,-0.6171 1.6578,-2.4567 0.2462,-0.3684 0.8096,-1.2099 1.2518,-1.87 0.4423,-0.6602 1.1993,-1.7906 1.6823,-2.5121 0.4828,-0.7215 1.0791,-1.612 1.3248,-1.9789 0.6771,-1.0112 2.1921,-3.274 2.6573,-3.969 1.9038,-2.8445 2.0214,-3.0184 2.0461,-3.0246 0.038,-0.01 0.058,0.014 0.058,0.067 0,0.049 0.021,0.01 -0.418,0.7719 -0.081,0.1412 -0.3052,0.5305 -0.4976,0.8652 -0.1922,0.3347 -0.4132,0.719 -0.4911,0.8541 -0.078,0.1351 -0.241,0.419 -0.3627,0.6308 -0.1217,0.2119 -0.285,0.4957 -0.3629,0.6308 -0.078,0.135 -0.2022,0.3511 -0.2762,0.4801 -0.074,0.1289 -0.2301,0.4002 -0.3467,0.6029 -0.1167,0.2026 -0.3449,0.5995 -0.5074,0.882 -0.5024,0.8738 -0.9734,1.6927 -1.3452,2.339 -0.196,0.3408 -0.5139,0.8934 -0.7064,1.228 -0.1924,0.3347 -0.4812,0.8371 -0.642,1.1165 -0.1607,0.2794 -0.4597,0.7994 -0.6645,1.1555 -0.2048,0.3562 -0.4258,0.7405 -0.4913,0.8541 -0.066,0.1136 -0.2662,0.4628 -0.4462,0.776 -0.4609,0.8017 -1.0199,1.7737 -1.2393,2.1547 -0.6276,1.0901 -0.6254,1.0862 -0.6254,1.1265 0,0.027 -0.01,0.043 -0.022,0.051 -0.026,0.014 -0.028,0.014 -0.084,-0.01 z m 8.7241,-15.2826 c 0.02,-0.035 0.034,-0.064 0.031,-0.064 -0.01,0 -0.084,0.1208 -0.078,0.1272 0,0 0.01,0.01 0.01,0.01 0,0 0.018,-0.032 0.038,-0.067 z m -25.5791,14.1986 c -0.034,-0.018 0.038,0.1928 -0.9972,-2.9363 -0.2926,-0.8842 -0.6518,-1.9694 -0.7983,-2.4115 -0.637,-1.9223 -0.5845,-1.7563 -0.5645,-1.7869 0.022,-0.034 0.034,-0.034 0.089,0 0.04,0.023 0.07,0.072 0.3635,0.5999 0.1758,0.3162 0.6566,1.1804 1.0682,1.9203 0.4118,0.74 1.045,1.8779 1.4072,2.5289 0.3622,0.6508 0.6844,1.2293 0.716,1.2854 0.032,0.056 0.058,0.1138 0.058,0.1284 0,0.029 -0.037,0.096 -0.066,0.1186 -0.04,0.032 -0.3128,0.163 -0.5835,0.2803 -0.1574,0.068 -0.3634,0.1597 -0.4577,0.2033 -0.094,0.043 -0.179,0.081 -0.1883,0.084 -0.01,0 -0.03,0 -0.046,-0.012 z m 14.8844,-0.022 c -0.046,-0.014 -0.1239,-0.042 -0.173,-0.062 -0.2007,-0.081 -0.7709,-0.3358 -0.9378,-0.4193 -0.1938,-0.097 -0.2114,-0.1149 -0.1632,-0.1663 0.021,-0.022 0.47,-0.9204 1.9096,-3.8196 3.3233,-6.6923 3.4826,-7.0104 3.5154,-7.015 0.014,0 0.034,0 0.043,0.01 0.018,0.014 0.017,0.018 -0.01,0.1227 -0.01,0.028 -0.1526,0.4453 -0.3255,0.9267 -0.1729,0.4813 -0.5002,1.3927 -0.7274,2.0251 -0.588,1.6367 -0.6607,1.8388 -0.7458,2.0767 -0.042,0.1166 -0.2396,0.668 -0.4399,1.2252 -0.6183,1.7209 -1.0769,2.9976 -1.4481,4.032 -0.1976,0.5503 -0.3562,1.0089 -0.3562,1.0295 0,0.026 -0.01,0.041 -0.022,0.049 -0.027,0.014 -0.024,0.015 -0.1235,-0.015 z m -2.2832,-0.8772 c -0.2736,-0.055 -1.1824,-0.3212 -1.2308,-0.36 -0.01,-0.01 -0.014,-0.022 -0.014,-0.036 0,-0.014 0.047,-0.1701 0.1052,-0.3476 0.058,-0.1773 0.5656,-1.7367 1.1284,-3.4653 0.5628,-1.7285 1.0602,-3.2559 1.1054,-3.394 0.092,-0.2817 0.9045,-2.7766 1.7412,-5.3478 0.3047,-0.9365 0.5669,-1.7419 0.5826,-1.7899 0.022,-0.066 0.035,-0.09 0.055,-0.1 0.039,-0.018 0.07,0.014 0.071,0.074 4e-4,0.026 0,0.056 0,0.069 6e-4,0.012 -0.092,0.4368 -0.2061,0.9434 -0.114,0.5066 -0.459,2.0415 -0.7667,3.4108 -0.696,3.0981 -0.6237,2.7763 -0.8415,3.7457 -0.6835,3.0436 -0.9169,4.0822 -0.9558,4.2537 -0.024,0.1075 -0.1451,0.6451 -0.2683,1.1946 -0.1232,0.5496 -0.2283,1.0168 -0.2335,1.0384 -0.01,0.022 -0.013,0.053 -0.017,0.07 -0.01,0.022 -0.018,0.036 -0.046,0.047 -0.049,0.02 -0.087,0.019 -0.2121,-0.01 z m -10.4489,-0.026 c -0.017,-0.012 -0.02,-0.024 -0.014,-0.05 0.01,-0.026 -0.1502,-0.6657 -0.5906,-2.4327 -0.3288,-1.3187 -0.7177,-2.88 -0.8644,-3.4695 -0.1465,-0.5895 -0.4831,-1.941 -0.7479,-3.0033 -0.2648,-1.0623 -0.6467,-2.5947 -0.8486,-3.4052 -0.2018,-0.8106 -0.5636,-2.2625 -0.8038,-3.2266 -1.0251,-4.1135 -1.217,-4.8887 -1.217,-4.917 0,-0.05 0.048,-0.076 0.077,-0.042 0.01,0.01 0.026,0.015 0.042,0.015 0.016,0 0.033,0.01 0.038,0.01 0.01,0.01 0.3187,0.9921 0.696,2.1924 0.3773,1.2003 1.1282,3.5891 1.6686,5.3084 0.5404,1.7194 1.0505,3.3422 1.1335,3.6063 0.5527,1.7582 0.8122,2.5842 1.0526,3.3493 0.1505,0.4789 0.333,1.0593 0.4055,1.2895 0.9949,3.1569 1.3751,4.3801 1.369,4.4048 -0.01,0.031 -0.1292,0.097 -0.2522,0.1372 -0.1494,0.048 -0.6155,0.1544 -0.9155,0.2084 -0.089,0.016 -0.1719,0.032 -0.1842,0.034 -0.012,0 -0.032,0 -0.044,-0.01 z m -4.7619,-19.6474 c -0.01,-0.014 -0.011,-0.021 -0.011,-0.014 0,0.018 0.012,0.05 0.018,0.045 0,0 -4e-4,-0.017 -0.01,-0.031 z m 12.6653,19.0697 c -0.2149,-0.042 -0.4963,-0.097 -0.6252,-0.123 -0.1289,-0.026 -0.254,-0.05 -0.2779,-0.054 -0.03,-0.01 -0.051,-0.017 -0.066,-0.038 -0.022,-0.029 -0.022,-0.032 -0.01,-0.067 0.011,-0.023 0.086,-0.4787 0.1971,-1.2033 0.098,-0.6417 0.2341,-1.5235 0.3016,-1.9594 0.067,-0.436 0.1982,-1.2825 0.2907,-1.8812 0.092,-0.5987 0.409,-2.6486 0.7035,-4.5552 0.2945,-1.9066 0.5957,-3.856 0.6693,-4.3319 0.3732,-2.4137 0.5016,-3.2475 0.5981,-3.8852 0.058,-0.3838 0.1107,-0.7305 0.1168,-0.7704 0.018,-0.1212 0.031,-0.1553 0.062,-0.1631 0.016,-0.01 0.035,0 0.046,0.01 0.02,0.016 0.02,0.017 -0.012,0.2891 -0.01,0.083 -0.098,1.1555 -0.196,2.3836 -0.1802,2.2562 -0.705,8.8133 -1.0944,13.676 -0.1166,1.455 -0.212,2.6541 -0.212,2.6647 0,0.03 -0.054,0.088 -0.082,0.087 -0.014,0 -0.2,-0.035 -0.4149,-0.078 z m -5.614,0.04 c -0.011,-0.011 -0.016,-0.029 -0.012,-0.048 0,-0.017 -0.017,-0.3292 -0.045,-0.6946 -0.028,-0.3653 -0.091,-1.1918 -0.1401,-1.8365 -0.049,-0.6448 -0.1197,-1.5718 -0.157,-2.0599 -0.3435,-4.497 -0.4082,-5.3675 -0.4006,-5.3882 0.018,-0.048 0.083,-0.041 0.093,0.01 0.052,0.2537 0.4059,1.8832 1.8429,8.4875 0.151,0.6939 0.273,1.2787 0.2713,1.2997 0,0.031 -0.01,0.042 -0.045,0.059 -0.047,0.025 -0.2815,0.065 -0.5336,0.092 -0.095,0.01 -0.3011,0.034 -0.4577,0.051 -0.1566,0.018 -0.3104,0.035 -0.3418,0.038 -0.044,0.01 -0.062,0 -0.075,-0.011 z m 3.7217,-0.2123 c -0.011,-0.014 -0.044,-0.017 -0.1605,-0.017 -0.081,0 -0.2571,-0.01 -0.3922,-0.011 -0.8487,-0.04 -0.9123,-0.043 -0.9275,-0.056 -0.019,-0.016 -0.021,-0.046 0,-0.063 0.014,-0.014 0.01,0.396 0.1046,-5.3061 0.1499,-8.7368 0.2525,-14.6907 0.2963,-17.199 0.025,-1.4247 0.045,-2.7811 0.044,-3.0145 0,-0.4196 0.01,-0.5239 0.037,-0.5435 0.022,-0.014 0.062,-0.011 0.072,0.01 0.01,0.01 0.01,0.1923 0.01,0.4103 7e-4,0.249 0.016,0.7617 0.042,1.3789 0.04,0.9657 0.1886,4.7025 0.7219,18.1508 0.062,1.5489 0.1292,3.2533 0.1505,3.7876 0.1008,2.5302 0.098,2.461 0.084,2.4786 -0.018,0.022 -0.06,0.022 -0.078,0 z"
       id="path48" />
  </g>
</svg>
